11 ACS Data Retrieval | Working with Census Data in R Studio
…
            Working with Census Data in R Studio

11 ACS Data Retrieval

11.1 Extracting variable codes for ACS data

To inspect the variable list for the ACS, use the “load variables” function. Let’s say we want to work with the 5-year ACS ending in 2019:

ACS_5_2019<-load_variables(2019,"acs5")

ACS_5_2019

## # A tibble: 27,040 x 3
##    name       label                                    concept   
##    <chr>      <chr>                                    <chr>     
##  1 B01001_001 Estimate!!Total:                         SEX BY AGE
##  2 B01001_002 Estimate!!Total:!!Male:                  SEX BY AGE
##  3 B01001_003 Estimate!!Total:!!Male:!!Under 5 years   SEX BY AGE
##  4 B01001_004 Estimate!!Total:!!Male:!!5 to 9 years    SEX BY AGE
##  5 B01001_005 Estimate!!Total:!!Male:!!10 to 14 years  SEX BY AGE
##  6 B01001_006 Estimate!!Total:!!Male:!!15 to 17 years  SEX BY AGE
##  7 B01001_007 Estimate!!Total:!!Male:!!18 and 19 years SEX BY AGE
##  8 B01001_008 Estimate!!Total:!!Male:!!20 years        SEX BY AGE
##  9 B01001_009 Estimate!!Total:!!Male:!!21 years        SEX BY AGE
## 10 B01001_010 Estimate!!Total:!!Male:!!22 to 24 years  SEX BY AGE
## # … with 27,030 more rows

If we wanted to view the variables for the 5-year acs ending in 2015, we’d use

ACS_5_2015<-load_variables(2015,"acs5")
ACS_5_2015

## # A tibble: 22,768 x 3
##    name       label                                  concept                                  
##    <chr>      <chr>                                  <chr>                                    
##  1 B00001_001 Estimate!!Total                        UNWEIGHTED SAMPLE COUNT OF THE POPULATION
##  2 B00002_001 Estimate!!Total                        UNWEIGHTED SAMPLE HOUSING UNITS          
##  3 B01001_001 Estimate!!Total                        SEX BY AGE                               
##  4 B01001_002 Estimate!!Total!!Male                  SEX BY AGE                               
##  5 B01001_003 Estimate!!Total!!Male!!Under 5 years   SEX BY AGE                               
##  6 B01001_004 Estimate!!Total!!Male!!5 to 9 years    SEX BY AGE                               
##  7 B01001_005 Estimate!!Total!!Male!!10 to 14 years  SEX BY AGE                               
##  8 B01001_006 Estimate!!Total!!Male!!15 to 17 years  SEX BY AGE                               
##  9 B01001_007 Estimate!!Total!!Male!!18 and 19 years SEX BY AGE                               
## 10 B01001_008 Estimate!!Total!!Male!!20 years        SEX BY AGE                               
## # … with 22,758 more rows

If we wanted to view the variables for the 1-year acs ending in 2017, we’d use:

ACS_1_2017<-load_variables(2017, "acs1")
ACS_1_2017

## # A tibble: 33,594 x 3
##    name       label                                  concept                                  
##    <chr>      <chr>                                  <chr>                                    
##  1 B00001_001 Estimate!!Total                        UNWEIGHTED SAMPLE COUNT OF THE POPULATION
##  2 B00002_001 Estimate!!Total                        UNWEIGHTED SAMPLE HOUSING UNITS          
##  3 B01001_001 Estimate!!Total                        SEX BY AGE                               
##  4 B01001_002 Estimate!!Total!!Male                  SEX BY AGE                               
##  5 B01001_003 Estimate!!Total!!Male!!Under 5 years   SEX BY AGE                               
##  6 B01001_004 Estimate!!Total!!Male!!5 to 9 years    SEX BY AGE                               
##  7 B01001_005 Estimate!!Total!!Male!!10 to 14 years  SEX BY AGE                               
##  8 B01001_006 Estimate!!Total!!Male!!15 to 17 years  SEX BY AGE                               
##  9 B01001_007 Estimate!!Total!!Male!!18 and 19 years SEX BY AGE                               
## 10 B01001_008 Estimate!!Total!!Male!!20 years        SEX BY AGE                               
## # … with 33,584 more rows

3-year ACS ending in 2012:

ACS_3_2012<-load_variables(2012, "acs3")
ACS_3_2012

## # A tibble: 34,278 x 3
##    name       label                                  concept                                  
##    <chr>      <chr>                                  <chr>                                    
##  1 B00001_001 Estimate!!Total                        UNWEIGHTED SAMPLE COUNT OF THE POPULATION
##  2 B00002_001 Estimate!!Total                        UNWEIGHTED SAMPLE HOUSING UNITS          
##  3 B01001_001 Estimate!!Total                        SEX BY AGE                               
##  4 B01001_002 Estimate!!Total!!Male                  SEX BY AGE                               
##  5 B01001_003 Estimate!!Total!!Male!!Under 5 years   SEX BY AGE                               
##  6 B01001_004 Estimate!!Total!!Male!!5 to 9 years    SEX BY AGE                               
##  7 B01001_005 Estimate!!Total!!Male!!10 to 14 years  SEX BY AGE                               
##  8 B01001_006 Estimate!!Total!!Male!!15 to 17 years  SEX BY AGE                               
##  9 B01001_007 Estimate!!Total!!Male!!18 and 19 years SEX BY AGE                               
## 10 B01001_008 Estimate!!Total!!Male!!20 years        SEX BY AGE                               
## # … with 34,268 more rows

11.2 Calling ACS data with tidycensus

County-level median income data

median_income<-get_acs(geography="county",
                       variables="B19013_001",
                       year=2019) %>% 
              rename(median_income=estimate) %>% 
              arrange(desc(median_income))

median_income

## # A tibble: 3,220 x 5
##    GEOID NAME                           variable   median_income   moe
##    <chr> <chr>                          <chr>              <dbl> <dbl>
##  1 51107 Loudoun County, Virginia       B19013_001        142299  2089
##  2 51610 Falls Church city, Virginia    B19013_001        127610 16144
##  3 51059 Fairfax County, Virginia       B19013_001        124831  1281
##  4 06085 Santa Clara County, California B19013_001        124055  1117
##  5 06081 San Mateo County, California   B19013_001        122641  1680
##  6 35028 Los Alamos County, New Mexico  B19013_001        121324  4613
##  7 24027 Howard County, Maryland        B19013_001        121160  2169
##  8 51013 Arlington County, Virginia     B19013_001        120071  2064
##  9 08035 Douglas County, Colorado       B19013_001        119730  1710
## 10 51600 Fairfax city, Virginia         B19013_001        116979  7777
## # … with 3,210 more rows
