8 Advanced data retrieval | Working with Census Data in R
…
my_years<-lst(2000,2010)
population_rural_2000_2010_list<-map(
  my_years,
  ~(get_decennial(geography = "state", 
                  variables = c("P001001", "P002005"),
                  output="wide",
                  year =.)) %>% 
    mutate(rural_pct=(P002005/P001001)*100) %>% 
    arrange(NAME)
)

population_rural_2000_2010_list

## $`2000`
## # A tibble: 52 x 5
##    GEOID NAME                  P001001 P002005 rural_pct
##    <chr> <chr>                   <dbl>   <dbl>     <dbl>
##  1 01    Alabama               4447100 1981427     44.6 
##  2 02    Alaska                 626932  215675     34.4 
##  3 04    Arizona               5130632  607097     11.8 
##  4 05    Arkansas              2673400 1269221     47.5 
##  5 06    California           33871648 1881985      5.56
##  6 08    Colorado              4301261  668076     15.5 
##  7 09    Connecticut           3405565  417506     12.3 
##  8 10    Delaware               783600  155842     19.9 
##  9 11    District of Columbia   572059       0      0   
## 10 12    Florida              15982378 1712358     10.7 
## # … with 42 more rows
## 
## $`2010`
## # A tibble: 52 x 5
##    GEOID NAME                  P001001 P002005 rural_pct
##    <chr> <chr>                   <dbl>   <dbl>     <dbl>
##  1 01    Alabama               4779736 1957932     41.0 
##  2 02    Alaska                 710231  241338     34.0 
##  3 04    Arizona               6392017  651358     10.2 
##  4 05    Arkansas              2915918 1278329     43.8 
##  5 06    California           37253956 1880350      5.05
##  6 08    Colorado              5029196  696435     13.8 
##  7 09    Connecticut           3574097  429155     12.0 
##  8 10    Delaware               897934  149985     16.7 
##  9 11    District of Columbia   601723       0      0   
## 10 12    Florida              18801310 1661466      8.84
## # … with 42 more rows

population_rural_2000_2010_list %>% pluck("2000")

## # A tibble: 52 x 5
##    GEOID NAME                  P001001 P002005 rural_pct
##    <chr> <chr>                   <dbl>   <dbl>     <dbl>
##  1 01    Alabama               4447100 1981427     44.6 
##  2 02    Alaska                 626932  215675     34.4 
##  3 04    Arizona               5130632  607097     11.8 
##  4 05    Arkansas              2673400 1269221     47.5 
##  5 06    California           33871648 1881985      5.56
##  6 08    Colorado              4301261  668076     15.5 
##  7 09    Connecticut           3405565  417506     12.3 
##  8 10    Delaware               783600  155842     19.9 
##  9 11    District of Columbia   572059       0      0   
## 10 12    Florida              15982378 1712358     10.7 
## # … with 42 more rows
…
my_years<-lst(2000,2010)

population_rural_2000_2010_df<-map_dfr(
  my_years,
  ~(get_decennial(geography = "state", 
                  variables = c("P001001", "P002005"),
                  output="wide",
                  year =.)) %>% 
    mutate(rural_pct=(P002005/P001001)*100) %>% 
    arrange(NAME), .id="year"
)

population_rural_2000_2010_df

## # A tibble: 104 x 6
##    year  GEOID NAME                  P001001 P002005 rural_pct
##    <chr> <chr> <chr>                   <dbl>   <dbl>     <dbl>
##  1 2000  01    Alabama               4447100 1981427     44.6 
##  2 2000  02    Alaska                 626932  215675     34.4 
##  3 2000  04    Arizona               5130632  607097     11.8 
##  4 2000  05    Arkansas              2673400 1269221     47.5 
##  5 2000  06    California           33871648 1881985      5.56
##  6 2000  08    Colorado              4301261  668076     15.5 
##  7 2000  09    Connecticut           3405565  417506     12.3 
##  8 2000  10    Delaware               783600  155842     19.9 
##  9 2000  11    District of Columbia   572059       0      0   
## 10 2000  12    Florida              15982378 1712358     10.7 
## # … with 94 more rows
…
