9 Analysis with multiple datasets | Working with Census Data in R
…
            Working with Census Data in R

9 Analysis with multiple datasets

urban<-function(x){
  final<-x %>% mutate(urban_pct=100-rural_pct)
  return(final)
}

map(population_rural_2000_2010_list, urban)  

## $`2000`
## # A tibble: 52 x 7
##    GEOID NAME                  P001001 P002005 rural_pct  year urban_pct
##    <chr> <chr>                   <dbl>   <dbl>     <dbl> <dbl>     <dbl>
##  1 01    Alabama               4447100 1981427     44.6   2000      55.4
##  2 02    Alaska                 626932  215675     34.4   2000      65.6
##  3 04    Arizona               5130632  607097     11.8   2000      88.2
##  4 05    Arkansas              2673400 1269221     47.5   2000      52.5
##  5 06    California           33871648 1881985      5.56  2000      94.4
##  6 08    Colorado              4301261  668076     15.5   2000      84.5
##  7 09    Connecticut           3405565  417506     12.3   2000      87.7
##  8 10    Delaware               783600  155842     19.9   2000      80.1
##  9 11    District of Columbia   572059       0      0     2000     100  
## 10 12    Florida              15982378 1712358     10.7   2000      89.3
## # … with 42 more rows
## 
## $`2010`
## # A tibble: 52 x 7
##    GEOID NAME         P001001 P002005 rural_pct  year urban_pct
##    <chr> <chr>          <dbl>   <dbl>     <dbl> <dbl>     <dbl>
##  1 01    Alabama      4779736 1957932     41.0   2010      59.0
##  2 02    Alaska        710231  241338     34.0   2010      66.0
##  3 04    Arizona      6392017  651358     10.2   2010      89.8
##  4 05    Arkansas     2915918 1278329     43.8   2010      56.2
##  5 06    California  37253956 1880350      5.05  2010      95.0
##  6 22    Louisiana    4533372 1215567     26.8   2010      73.2
##  7 21    Kentucky     4339367 1806024     41.6   2010      58.4
##  8 08    Colorado     5029196  696435     13.8   2010      86.2
##  9 09    Connecticut  3574097  429155     12.0   2010      88.0
## 10 10    Delaware      897934  149985     16.7   2010      83.3
## # … with 42 more rows

population_rural_2000_2010_list

## $`2000`
## # A tibble: 52 x 6
##    GEOID NAME                  P001001 P002005 rural_pct  year
##    <chr> <chr>                   <dbl>   <dbl>     <dbl> <dbl>
##  1 01    Alabama               4447100 1981427     44.6   2000
##  2 02    Alaska                 626932  215675     34.4   2000
##  3 04    Arizona               5130632  607097     11.8   2000
##  4 05    Arkansas              2673400 1269221     47.5   2000
##  5 06    California           33871648 1881985      5.56  2000
##  6 08    Colorado              4301261  668076     15.5   2000
##  7 09    Connecticut           3405565  417506     12.3   2000
##  8 10    Delaware               783600  155842     19.9   2000
##  9 11    District of Columbia   572059       0      0     2000
## 10 12    Florida              15982378 1712358     10.7   2000
## # … with 42 more rows
## 
## $`2010`
## # A tibble: 52 x 6
##    GEOID NAME         P001001 P002005 rural_pct  year
##    <chr> <chr>          <dbl>   <dbl>     <dbl> <dbl>
##  1 01    Alabama      4779736 1957932     41.0   2010
##  2 02    Alaska        710231  241338     34.0   2010
##  3 04    Arizona      6392017  651358     10.2   2010
##  4 05    Arkansas     2915918 1278329     43.8   2010
##  5 06    California  37253956 1880350      5.05  2010
##  6 22    Louisiana    4533372 1215567     26.8   2010
##  7 21    Kentucky     4339367 1806024     41.6   2010
##  8 08    Colorado     5029196  696435     13.8   2010
##  9 09    Connecticut  3574097  429155     12.0   2010
## 10 10    Delaware      897934  149985     16.7   2010
## # … with 42 more rows
name_edit<-function(x){
  year_vector<-x$year
  year_extracted<-year_vector[1]
  desired_name<-paste0("rural_pct", "_", year_extracted)
  names(x)[5]<-desired_name
  final<-x %>% select(-c(P001001, P002005, year))
  return(final)
}

population_rural_2000_2010_list_edited<-map(population_rural_2000_2010_list, name_edit)

population_rural_2000_2010_list_edited

## $`2000`
## # A tibble: 52 x 3
##    GEOID NAME                 rural_pct_2000
##    <chr> <chr>                         <dbl>
##  1 01    Alabama                       44.6 
##  2 02    Alaska                        34.4 
##  3 04    Arizona                       11.8 
##  4 05    Arkansas                      47.5 
##  5 06    California                     5.56
##  6 08    Colorado                      15.5 
##  7 09    Connecticut                   12.3 
##  8 10    Delaware                      19.9 
##  9 11    District of Columbia           0   
## 10 12    Florida                       10.7 
## # … with 42 more rows
## 
## $`2010`
## # A tibble: 52 x 3
##    GEOID NAME        rural_pct_2010
##    <chr> <chr>                <dbl>
##  1 01    Alabama              41.0 
##  2 02    Alaska               34.0 
##  3 04    Arizona              10.2 
##  4 05    Arkansas             43.8 
##  5 06    California            5.05
##  6 22    Louisiana            26.8 
##  7 21    Kentucky             41.6 
##  8 08    Colorado             13.8 
##  9 09    Connecticut          12.0 
## 10 10    Delaware             16.7 
## # … with 42 more rows
