10 Exporting R Objects | Working with Census Data in R Studio
…
jpeg("/Users/adra7980/Documents/git_repositories/R_census/exported_objects/visualizations/CO_median_age_graph.jpeg")
median_age_CO_cleaned_visualization
dev.off()

## quartz_off_screen 
##                 2

10.2 Exporting multiple objects

10.2.1 Exporting multiple csv files stored in a list

population_rural_2000_2010_list_cleaned

## $`2000`
## # A tibble: 52 x 3
##    GEOID NAME                 rural_pct_2000
##    <chr> <chr>                         <dbl>
##  1 01    Alabama                       44.6 
##  2 02    Alaska                        34.4 
##  3 04    Arizona                       11.8 
##  4 05    Arkansas                      47.5 
##  5 06    California                     5.56
##  6 08    Colorado                      15.5 
##  7 09    Connecticut                   12.3 
##  8 10    Delaware                      19.9 
##  9 11    District of Columbia           0   
## 10 12    Florida                       10.7 
## # … with 42 more rows
## 
## $`2010`
## # A tibble: 52 x 3
##    GEOID NAME        rural_pct_2010
##    <chr> <chr>                <dbl>
##  1 01    Alabama              41.0 
##  2 02    Alaska               34.0 
##  3 04    Arizona              10.2 
##  4 05    Arkansas             43.8 
##  5 06    California            5.05
##  6 22    Louisiana            26.8 
##  7 21    Kentucky             41.6 
##  8 08    Colorado             13.8 
##  9 09    Connecticut          12.0 
## 10 10    Delaware             16.7 
## # … with 42 more rows
…
