3 Loading Census Data | Working with Census Data in R
…
## Using feature geometry obtained from the albersusa package

## Using Census Summary File 1

## Please note: Alaska and Hawaii are being shifted and are not to scale.

state_population_2010

## Simple feature collection with 51 features and 4 fields
## geometry type:  MULTIPOLYGON
## dimension:      XY
## bbox:           xmin: -2100000 ymin: -2500000 xmax: 2516374 ymax: 732103.3
## CRS:            +proj=laea +lat_0=45 +lon_0=-100 +x_0=0 +y_0=0 +a=6370997 +b=6370997 +units=m +no_defs
## # A tibble: 51 x 5
##    GEOID NAME              variable    value                                                                   geometry
##    <chr> <chr>             <chr>       <dbl>                                                         <MULTIPOLYGON [m]>
##  1 04    Arizona           P001001   6392017 (((-1111066 -805474.8, -1110710 -805527.4, -1096162 -807662.1, -1095175 -…
##  2 05    Arkansas          P001001   2915918 (((557903.1 -1310327, 557483.6 -1303671, 557408.4 -1302208, 557113.4 -129…
##  3 06    California        P001001  37253956 (((-1853480 -998633.1, -1853321 -998375.9, -1852406 -997949.2, -1851573 -…
##  4 08    Colorado          P001001   5029196 (((-613452.9 -417106.2, -586939.8 -419363.1, -575002.3 -420410.4, -541232…
##  5 09    Connecticut       P001001   3574097 (((2226838 51908.44, 2242161 57149.68, 2247027 58823.47, 2247030 58824.25…
##  6 11    District of Colu… P001001    601723 (((1960720 -410647.9, 1960509 -409425.2, 1959178 -407396.3, 1956075 -4049…
##  7 13    Georgia           P001001   9687653 (((1379893 -987523.9, 1380010 -987506.9, 1380104 -987487.1, 1382994 -9869…
##  8 17    Illinois          P001001  12830632 (((868942.5 -221376, 869308.9 -221357.5, 875058.6 -220731.5, 878327 -2203…
##  9 18    Indiana           P001001   6483802 (((1279733 -398355.3, 1280583 -403035.5, 1280583 -403037.8, 1280716 -4038…
## 10 22    Louisiana         P001001   4533372 (((1080885 -1620913, 1078920 -1625009, 1074771 -1632330, 1074358 -1632208…
## # … with 41 more rows
