2 Loading Decennial Census Data via tidycensus | Working with Census Data in R
…
2 Loading Decennial Census Data via tidycensus

library(tidycensus)

We begin by loading a table of decennial census variables, and assigning it to an object named decennial_variables:

decennial_variables<-load_variables(2010, "sf1")

We can print this table to the console by simply printing the object name, decennial_variables:

# Print table of 2010 decennial variables to console
decennial_variables

## # A tibble: 8,959 x 3
##    name    label                                concept         
##    <chr>   <chr>                                <chr>           
##  1 H001001 Total                                HOUSING UNITS   
##  2 H002001 Total                                URBAN AND RURAL 
##  3 H002002 Total!!Urban                         URBAN AND RURAL 
##  4 H002003 Total!!Urban!!Inside urbanized areas URBAN AND RURAL 
##  5 H002004 Total!!Urban!!Inside urban clusters  URBAN AND RURAL 
##  6 H002005 Total!!Rural                         URBAN AND RURAL 
##  7 H002006 Total!!Not defined for this file     URBAN AND RURAL 
##  8 H003001 Total                                OCCUPANCY STATUS
##  9 H003002 Total!!Occupied                      OCCUPANCY STATUS
## 10 H003003 Total!!Vacant                        OCCUPANCY STATUS
## # … with 8,949 more rows
…
## Getting data from the 2010 decennial Census

## Downloading feature geometry from the Census website.  To cache shapefiles for use in future sessions, set `options(tigris_use_cache = TRUE)`.

## Using Census Summary File 1

state_population_2010

## Simple feature collection with 52 features and 4 fields
## geometry type:  MULTIPOLYGON
## dimension:      XY
## bbox:           xmin: -179.1473 ymin: 17.88481 xmax: 179.7785 ymax: 71.35256
## geographic CRS: NAD83
## # A tibble: 52 x 5
##    GEOID NAME         variable   value                                                           geometry
##    <chr> <chr>        <chr>      <dbl>                                                 <MULTIPOLYGON [°]>
##  1 23    Maine        P001001   1.33e6 (((-67.61976 44.51975, -67.61541 44.52197, -67.58774 44.5162, -67…
##  2 25    Massachuset… P001001   6.55e6 (((-70.83204 41.6065, -70.82373 41.59857, -70.82092 41.58767, -70…
##  3 26    Michigan     P001001   9.88e6 (((-88.68443 48.11578, -88.67563 48.12044, -88.67639 48.12488, -8…
##  4 30    Montana      P001001   9.89e5 (((-104.0577 44.99743, -104.2501 44.99822, -104.4701 44.99845, -1…
##  5 32    Nevada       P001001   2.70e6 (((-114.0506 37.0004, -114.05 36.95777, -114.0506 36.84313, -114.…
##  6 34    New Jersey   P001001   8.79e6 (((-75.52684 39.65571, -75.52634 39.65641, -75.52234 39.66081, -7…
##  7 36    New York     P001001   1.94e7 (((-71.94356 41.28667, -71.9268 41.29012, -71.93526 41.28058, -71…
##  8 37    North Carol… P001001   9.54e6 (((-82.60288 36.03983, -82.60074 36.03742, -82.59878 36.03416, -8…
##  9 39    Ohio         P001001   1.15e7 (((-82.81349 41.72347, -82.81049 41.72052, -82.80887 41.70833, -8…
## 10 42    Pennsylvania P001001   1.27e7 (((-75.41504 39.80179, -75.42804 39.80921, -75.45374 39.82031, -7…
## # … with 42 more rows
